{
  "packages":
  [
    {
      "name": "izinto",
      "maintainer": "Izinto",
      "websiteURL": "http://izinto.cloud",
      "email" : "support@izinto.cloud",
      "platforms":
      [
        {
          "name": "Izinto",
          "architecture": "samd",
          "version": "1.8.4",
          "category": "Contributed",
          "url": "https://bitbucket.org/izinto/arduino-board-definitions/raw/master/Izinto/hardware/samd/Izinto-1.8.4.zip",
          "archiveFileName": "Izinto-1.8.4.zip",
          "checksum": "SHA-256:32dc2e8556c4412ee5ee69664d216805625f19432ec2c797eb25865672ae1b58",
          "size": "4295621",
          "boards": [
            {
              "name": "Izinto Sigfox Misol D21G18A"
            }
          ],
          "toolsDependencies":
          [
            {
              "packager": "arduino",
              "name": "arm-none-eabi-gcc",
              "version": "7-2017q4"
            },
            {
              "packager": "arduino",
              "name": "bossac",
              "version": "1.7.0-arduino3"
            },
            {
              "packager": "arduino",
              "name": "openocd",
              "version": "0.10.0-arduino7"
            },
            {
              "packager": "arduino",
              "name": "CMSIS",
              "version": "4.5.0"
            },
            {
              "packager": "arduino",
              "name": "CMSIS-Atmel",
              "version": "1.2.0"
            },
            {
              "packager": "arduino",
              "name": "arduinoOTA",
              "version": "1.2.1"
            }
          ]
        },
        {
          "name": "Izinto SAMD Boards (32-bits ARM Cortex-M0+)",
          "architecture": "samd",
          "version": "1.8.11",
          "category": "Contributed",
          "help": {
            "online": "http://izinto.cloud"
          },
          "url": "https://bitbucket.org/izinto/arduino-board-definitions/raw/master/Izinto/hardware/samd/Izinto-1.8.11.zip",
          "archiveFileName": "Izinto-1.8.11.zip",
          "checksum": "SHA-256:670db18d07b7c0c2e907eb6aeae33e7a2e9ce158f7c0123c4baee85df9ed594a",
          "size": "4661099",
          "boards": [
            { "name": "Izinto Sigfox Misol D21G18A" },
            { "name": "Izinto Sigfox Misol V1.2 (USB)" }
          ],
          "toolsDependencies": [
            {
              "packager": "arduino",
              "name": "arm-none-eabi-gcc",
              "version": "7-2017q4"
            },
            {
              "packager": "arduino",
              "name": "bossac",
              "version": "1.7.0-arduino3"
            },
            {
              "packager": "arduino",
              "name": "openocd",
              "version": "0.10.0-arduino7"
            },
            {
              "packager": "arduino",
              "name": "CMSIS",
              "version": "4.5.0"
            },
            {
              "packager": "arduino",
              "name": "CMSIS-Atmel",
              "version": "1.2.0"
            },
            {
              "packager": "arduino",
              "name": "arduinoOTA",
              "version": "1.2.1"
            }
          ]
        }
      ],
      "tools":
      [
      ]
    }
  ]
}
